{"docs":[{"externalId":{"kpHD":"47d6dbe4e1c90c9aa974b229e43fc907","imdb":"tt6320628","tmdb":429617},"rating":{"kp":7.401,"imdb":7.4,"filmCritics":7.4,"russianFilmCritics":100,"await":92.79},"votes":{"kp":469651,"imdb":504009,"filmCritics":457,"russianFilmCritics":10,"await":30685},"movieLength":129,"id":1008445,"type":"movie","name":"Человек-паук: Вдали от дома","description":"Питер Паркер вместе с одноклассниками отправляется на летние каникулы в Европу. Однако отдохнуть приятелям вряд ли удастся — по прибытии в Венецию группа попадет в эпицентр сражения. Некое существо, состоящее из воды, появляется из ниоткуда и начинает крушить всё на своём пути, и теперь Питеру придётся спасать европейские архитектурные памятники вместе с загадочным супергероем Мистерио.","year":2019,"poster":{"url":"https://st.kp.yandex.net/images/film_big/1008445.jpg","previewUrl":"https://st.kp.yandex.net/images/film_iphone/iphone360_1008445.jpg"},"alternativeName":"Spider-Man: Far from Home","enName":null,"names":[{"name":"Человек-паук: Вдали от дома"},{"name":"Spider-Man: Far from Home"}],"shortDescription":"Самый юный из Мстителей едет на каникулы в Европу и знакомится с Мистерио. Остроумный комикс о силе иллюзий","logo":{"url":"https://avatars.mds.yandex.net/get-ott/2419418/2a0000016e04453a9e17c3b40e175e55ffa1/orig"},"watchability":{"items":[{"name":"Иви","logo":{"url":"https://avatars.mds.yandex.net/get-ott/2419418/0dfd1724-848f-4725-9160-abc571f41c11/orig"},"url":"https://www.ivi.ru/watch/191424?utm_source=yandex&utm_medium=wizard"},{"name":"Триколор Кино и ТВ","logo":{"url":"https://avatars.mds.yandex.net/get-ott/239697/947e777c-2f73-4cbc-b09d-6bfa3966ba13/orig"},"url":"https://kino.tricolor.tv/watch/chelovek-pauk-vdali-ot-doma-2019/?utm_source=yandex&utm_medium=feed"},{"name":"Wink","logo":{"url":"https://avatars.mds.yandex.net/get-ott/1672343/54096cbe-cc3b-41c9-8e44-990ebbca8d61/orig"},"url":"https://wink.ru/media_items/84593044?utm_source=yandex&utm_medium=koldunschick&utm_content=name"}]}},{"externalId":{"kpHD":"4d1fd3e7bf7c83bf910c3e141334accb","imdb":"tt0145487","tmdb":557},"rating":{"kp":7.675,"imdb":7.4,"filmCritics":7.6,"russianFilmCritics":0,"await":0},"votes":{"kp":417012,"imdb":827362,"filmCritics":247,"russianFilmCritics":0,"await":0},"movieLength":121,"id":838,"type":"movie","name":"Человек-паук","description":"Питер Паркер – обыкновенный школьник. Однажды он отправился с классом на экскурсию, где его кусает странный паук-мутант. Через время парень почувствовал в себе нечеловеческую силу и ловкость в движении, а главное – умение лазать по стенам и метать стальную паутину. Свои способности он направляет на защиту слабых. Так Питер становится настоящим супергероем по имени Человек-паук, который помогает людям и борется с преступностью. Но там, где есть супергерой, рано или поздно всегда объявляется и суперзлодей...","year":2002,"poster":{"url":"https://st.kp.yandex.net/images/film_big/838.jpg","previewUrl":"https://st.kp.yandex.net/images/film_iphone/iphone360_838.jpg"},"alternativeName":"Spider-Man","enName":null,"names":[{"name":"Человек-паук"},{"name":"Spider-Man"}],"shortDescription":"Школьник-неудачник Питер Паркер становится супергероем. Тоби Магуайр в культовом кинокомиксе Сэма Рэйми","logo":{"url":"https://avatars.mds.yandex.net/get-ott/212840/2a0000016eadd455a2f17fd3676319109d80/orig"},"watchability":{"items":[{"name":"Okko","logo":{"url":"https://avatars.mds.yandex.net/get-ott/239697/7713e586-17d1-42d1-ac62-53e9ef1e70c3/orig"},"url":"https://okko.tv/movie/spider-man?utm_medium=referral&utm_source=yandex_search&utm_campaign=new_search_feed"},{"name":"Иви","logo":{"url":"https://avatars.mds.yandex.net/get-ott/2419418/0dfd1724-848f-4725-9160-abc571f41c11/orig"},"url":"https://www.ivi.ru/watch/63763?utm_source=yandex&utm_medium=wizard"},{"name":"Wink","logo":{"url":"https://avatars.mds.yandex.net/get-ott/1672343/54096cbe-cc3b-41c9-8e44-990ebbca8d61/orig"},"url":"https://wink.ru/media_items/54954897?utm_source=yandex&utm_medium=koldunschick&utm_content=name"},{"name":"viju","logo":{"url":"https://avatars.mds.yandex.net/get-ott/224348/8b10c84b-e1bb-4493-9bc4-6ee56554403a/orig"},"url":"https://viju.ru/filmy/chelovek-pauk?utm_campaign=yandex_content_integration&utm_medium=affiliate&utm_source=yandex"},{"name":"24ТВ","logo":{"url":"https://avatars.mds.yandex.net/get-ott/2439731/85e83b8d-1159-4781-bad5-ce0a809b3843/orig"},"url":"https://24h.tv/contents/2002-spider-man-546313478181225307"}]}},{"externalId":{"kpHD":"429e00f561ff628aa49ba32afff9df87","imdb":"tt2250912","tmdb":315635},"rating":{"kp":7.156,"imdb":7.4,"filmCritics":7.6,"russianFilmCritics":88.8889,"await":88.37},"votes":{"kp":364370,"imdb":668851,"filmCritics":399,"russianFilmCritics":18,"await":54910},"movieLength":133,"id":690593,"type":"movie","name":"Человек-паук: Возвращение домой","description":"После встречи с командой Мстителей Питер Паркер возвращается домой и пытается жить обычной жизнью под опекой тёти Мэй. Но теперь за Питером приглядывает кое-кто ещё. Тони Старк видел Человека-паука в деле и должен стать его наставником. Когда новый злодей Стервятник угрожает уничтожить всё, что дорого Питеру, приходит время показать всем, что такое настоящий супергерой.","year":2017,"poster":{"url":"https://st.kp.yandex.net/images/film_big/690593.jpg","previewUrl":"https://st.kp.yandex.net/images/film_iphone/iphone360_690593.jpg"},"alternativeName":"Spider-Man: Homecoming","enName":null,"names":[{"name":"Человек-паук: Возвращение домой"},{"name":"Spider-Man: Homecoming"}],"shortDescription":"Юный Спайдермен добивается места в команде Мстителей. Перезагрузка франшизы — теперь в киновселенной Marvel","logo":{"url":"https://avatars.mds.yandex.net/get-ott/374297/2a000001729e7a64914f13f1174cc3429799/orig"},"watchability":{"items":[{"name":"Иви","logo":{"url":"https://avatars.mds.yandex.net/get-ott/2419418/0dfd1724-848f-4725-9160-abc571f41c11/orig"},"url":"https://www.ivi.ru/watch/133364?utm_source=yandex&utm_medium=wizard"},{"name":"Триколор Кино и ТВ","logo":{"url":"https://avatars.mds.yandex.net/get-ott/239697/947e777c-2f73-4cbc-b09d-6bfa3966ba13/orig"},"url":"https://kino.tricolor.tv/watch/chelovek-pauk-vozvrashchenie-domoy-2017/?utm_source=yandex&utm_medium=feed"},{"name":"Wink","logo":{"url":"https://avatars.mds.yandex.net/get-ott/1672343/54096cbe-cc3b-41c9-8e44-990ebbca8d61/orig"},"url":"https://wink.ru/media_items/56620608?utm_source=yandex&utm_medium=koldunschick&utm_content=name"}]}},{"externalId":{"kpHD":"46edc7a70da33c7db48c07b340a69350","imdb":"tt10872600","tmdb":634649},"rating":{"kp":7.958,"imdb":8.2,"filmCritics":7.9,"russianFilmCritics":80,"await":97.55},"votes":{"kp":362327,"imdb":775237,"filmCritics":424,"russianFilmCritics":15,"await":106884},"movieLength":148,"id":1309570,"type":"movie","name":"Человек-паук: Нет пути домой","description":"Жизнь и репутация Питера Паркера оказываются под угрозой, поскольку Мистерио раскрыл всему миру тайну личности Человека-паука. Пытаясь исправить ситуацию, Питер обращается за помощью к Стивену Стрэнджу, но вскоре всё становится намного опаснее.","year":2021,"poster":{"url":"https://st.kp.yandex.net/images/film_big/1309570.jpg","previewUrl":"https://st.kp.yandex.net/images/film_iphone/iphone360_1309570.jpg"},"alternativeName":"Spider-Man: No Way Home","enName":null,"names":[{"name":"Человек-паук: Нет пути домой"},{"name":"Spider-Man: No Way Home"}],"shortDescription":"Враги Человека-паука проникают в наш мир из других измерений. Ностальгический фильм-кроссовер о Питере Паркере","logo":{"url":"https://avatars.mds.yandex.net/get-ott/212840/2a0000017f2b64f82f9dfbef3a3cee0ed892/orig"},"watchability":{"items":null}},{"id":278217,"type":"movie","externalId":{"kpHD":"48ada810600bbe5ebef462e3009ffca9","imdb":"tt0948470","tmdb":1930},"name":"Новый Человек-паук","rating":{"kp":6.923,"imdb":6.9,"filmCritics":6.6,"russianFilmCritics":50,"await":79.48},"description":"В детстве Питер Паркер был оставлен своими родителями, и поэтому воспитывался дядей и тётей. Шли годы, Питер был обычным примерным школьником, подвергался нападкам хулиганов и был влюблён в свою одноклассницу Гвен Стэйси, которая сама втайне отвечала ему взаимностью. Но после укуса генетически изменённого паука, Питер получает невероятные сверхспособности и его жизнь меняется навсегда.\n\nОднако его не перестаёт мучить вопрос о том, что случилось с его родителями. Он знакомится с давним другом и партнёром своего отца - генетиком Куртом Коннорсом, который вместе с отцом Питера разрабатывал формулу регенерации. Питер помогает её закончить, а Коннорс, всю жизнь мечтавший восстановить свою правую руку, вводит формулу себе и становится Ящером. Осознавая свою вину, Питер начинает новую жизнь в образе таинственного супергероя Человека-паука и становится грозой преступников, одновременно пытаясь найти способ остановить Коннорса.","votes":{"kp":308877,"imdb":664236,"filmCritics":339,"russianFilmCritics":16,"await":72241},"year":2012,"poster":{"url":"https://st.kp.yandex.net/images/film_big/278217.jpg","previewUrl":"https://st.kp.yandex.net/images/film_iphone/iphone360_278217.jpg"},"alternativeName":"The Amazing Spider-Man","enName":null,"movieLength":131,"names":[{"name":"Новый Человек-паук"},{"name":"The Amazing Spider-Man"}],"shortDescription":"Укус паука — и жизнь подростка меняется навсегда. Первая часть супергеройской дилогии с Эндрю Гарфилдом","logo":{"url":"https://avatars.mds.yandex.net/get-ott/224348/2a000001720d9991e75a3f03bd269ba63e13/orig"},"watchability":{"items":[{"name":"Okko","logo":{"url":"https://avatars.mds.yandex.net/get-ott/239697/7713e586-17d1-42d1-ac62-53e9ef1e70c3/orig"},"url":"https://okko.tv/movie/the-amazing-spider-man?utm_medium=referral&utm_source=yandex_search&utm_campaign=new_search_feed"},{"name":"Иви","logo":{"url":"https://avatars.mds.yandex.net/get-ott/2419418/0dfd1724-848f-4725-9160-abc571f41c11/orig"},"url":"https://www.ivi.ru/watch/65072?utm_source=yandex&utm_medium=wizard"},{"name":"Wink","logo":{"url":"https://avatars.mds.yandex.net/get-ott/1672343/54096cbe-cc3b-41c9-8e44-990ebbca8d61/orig"},"url":"https://wink.ru/media_items/54966155?utm_source=yandex&utm_medium=koldunschick&utm_content=name"},{"name":"viju","logo":{"url":"https://avatars.mds.yandex.net/get-ott/224348/8b10c84b-e1bb-4493-9bc4-6ee56554403a/orig"},"url":"https://viju.ru/filmy/novyy-chelovek-pauk?utm_campaign=yandex_content_integration&utm_medium=affiliate&utm_source=yandex"},{"name":"НТВ-ПЛЮС Онлайн ТВ","logo":{"url":"https://avatars.mds.yandex.net/get-ott/223007/c6b9b3d8-3258-4394-9cae-c86fdb56a0c6/orig"},"url":"https://ntvplus.tv/watch/17639-novyj-chelovek-pauk?utm_source=kinopoisk"},{"name":"24ТВ","logo":{"url":"https://avatars.mds.yandex.net/get-ott/2439731/85e83b8d-1159-4781-bad5-ce0a809b3843/orig"},"url":"https://24h.tv/contents/2012-the-amazing-spider-man-546314713143706562"}]}},{"externalId":{"kpHD":"488e1084a60e369da9c299c0840fb51e","imdb":"tt0413300","tmdb":559},"rating":{"kp":7.097,"imdb":6.3,"filmCritics":6.2,"russianFilmCritics":0,"await":0},"votes":{"kp":306579,"imdb":599472,"filmCritics":261,"russianFilmCritics":1,"await":0},"movieLength":139,"id":82441,"type":"movie","name":"Человек-паук 3: Враг в отражении","description":"Прошло пять лет с тех пор, как Питер осознал, что «с Великой силой приходит Великая ответственность!», и три года с тех пор, как он отказался быть борцом за справедливость. Но сейчас кажется, Питер прекрасно научился жить несколькими жизнями. Он хорошо учится, Нью-Йорк признал его героем, отношения с Мэри Джейн прочные. Питер даже намеревается сделать ей предложение!\n\nНо к сожалению, его лучший друг Гарри Озборн по-прежнему считает, что именно Человек-паук несет ответственность за безвременную кончину его отца. Гарри намеревается отомстить ему в образе Нового Гоблина. В то же самое время на криминальной сцене Нью-Йорка появляется другой могущественный суперзлодей, известный как Песочный Человек.\n\nКогда Человек-паук надевает таинственный черный костюм, его темная, более мстительная сторона полностью поглощает его. Эти трансформации заставляют его встретиться с самым сильным противником ― с самим собой…","year":2007,"poster":{"url":"https://st.kp.yandex.net/images/film_big/82441.jpg","previewUrl":"https://st.kp.yandex.net/images/film_iphone/iphone360_82441.jpg"},"alternativeName":"Spider-Man 3","enName":null,"names":[{"name":"Человек-паук 3: Враг в отражении"},{"name":"Spider-Man 3"}],"shortDescription":"Питер Паркер борется с новыми врагами и своей темной стороной. Последняя часть кинокомикса с Тоби Магуайром","logo":{"url":"https://avatars.mds.yandex.net/get-ott/2385704/2a0000017179353036b9ec3ccb2f52e1510e/orig"},"watchability":{"items":[{"name":"Okko","logo":{"url":"https://avatars.mds.yandex.net/get-ott/239697/7713e586-17d1-42d1-ac62-53e9ef1e70c3/orig"},"url":"https://okko.tv/movie/spider-man-3?utm_medium=referral&utm_source=yandex_search&utm_campaign=new_search_feed"},{"name":"Иви","logo":{"url":"https://avatars.mds.yandex.net/get-ott/2419418/0dfd1724-848f-4725-9160-abc571f41c11/orig"},"url":"https://www.ivi.ru/watch/83443?utm_source=yandex&utm_medium=wizard"},{"name":"Триколор Кино и ТВ","logo":{"url":"https://avatars.mds.yandex.net/get-ott/239697/947e777c-2f73-4cbc-b09d-6bfa3966ba13/orig"},"url":"https://kino.tricolor.tv/watch/chelovek-pauk-3-vrag-v-otrazhenii-2007/?utm_source=yandex&utm_medium=feed"},{"name":"Wink","logo":{"url":"https://avatars.mds.yandex.net/get-ott/1672343/54096cbe-cc3b-41c9-8e44-990ebbca8d61/orig"},"url":"https://wink.ru/media_items/54952773?utm_source=yandex&utm_medium=koldunschick&utm_content=name"},{"name":"viju","logo":{"url":"https://avatars.mds.yandex.net/get-ott/224348/8b10c84b-e1bb-4493-9bc4-6ee56554403a/orig"},"url":"https://viju.ru/filmy/chelovek-pauk-3-vrag-v-otrazhenii?utm_campaign=yandex_content_integration&utm_medium=affiliate&utm_source=yandex"},{"name":"24ТВ","logo":{"url":"https://avatars.mds.yandex.net/get-ott/2439731/85e83b8d-1159-4781-bad5-ce0a809b3843/orig"},"url":"https://24h.tv/contents/2007-spider-man-3-546313575417774331"}]}},{"externalId":{"kpHD":"4b8ade0170ae4d9a80c22f2d43e3ecfe","imdb":"tt0316654","tmdb":558},"rating":{"kp":7.334,"imdb":7.4,"filmCritics":8.3,"russianFilmCritics":0,"await":0},"votes":{"kp":293883,"imdb":662718,"filmCritics":275,"russianFilmCritics":0,"await":0},"movieLength":127,"id":2898,"type":"movie","name":"Человек-паук 2","description":"Тихоня Питер Паркер балансирует на грани двух своих жизней: супергероя Человека-паука и обычного студента колледжа. Его отношения со всеми, кто ему дорог, в опасности или зашли в тупик. А жизнь приготовила ему новое испытание. Он должен использовать все свои суперспособности, чтобы одолеть жестокого безумца доктора Отто Октавиуса.","year":2004,"poster":{"url":"https://st.kp.yandex.net/images/film_big/2898.jpg","previewUrl":"https://st.kp.yandex.net/images/film_iphone/iphone360_2898.jpg"},"alternativeName":"Spider-Man 2","enName":null,"names":[{"name":"Человек-паук 2"},{"name":"Spider-Man 2"}],"shortDescription":"Нью-Йорку угрожает Осьминог, а у супергероя пропали способности. Сэм Рэйми связал блокбастер и личную драму","logo":{"url":"https://avatars.mds.yandex.net/get-ott/2385704/2a000001717922044c3b5f49433205206beb/orig"},"watchability":{"items":[{"name":"Okko","logo":{"url":"https://avatars.mds.yandex.net/get-ott/239697/7713e586-17d1-42d1-ac62-53e9ef1e70c3/orig"},"url":"https://okko.tv/movie/spider-man-2?utm_medium=referral&utm_source=yandex_search&utm_campaign=new_search_feed"},{"name":"Иви","logo":{"url":"https://avatars.mds.yandex.net/get-ott/2419418/0dfd1724-848f-4725-9160-abc571f41c11/orig"},"url":"https://www.ivi.ru/watch/83419?utm_source=yandex&utm_medium=wizard"},{"name":"Wink","logo":{"url":"https://avatars.mds.yandex.net/get-ott/1672343/54096cbe-cc3b-41c9-8e44-990ebbca8d61/orig"},"url":"https://wink.ru/media_items/54953889?utm_source=yandex&utm_medium=koldunschick&utm_content=name"},{"name":"viju","logo":{"url":"https://avatars.mds.yandex.net/get-ott/224348/8b10c84b-e1bb-4493-9bc4-6ee56554403a/orig"},"url":"https://viju.ru/filmy/chelovek-pauk-2?utm_campaign=yandex_content_integration&utm_medium=affiliate&utm_source=yandex"},{"name":"24ТВ","logo":{"url":"https://avatars.mds.yandex.net/get-ott/2439731/85e83b8d-1159-4781-bad5-ce0a809b3843/orig"},"url":"https://24h.tv/contents/2004-spider-man-2-546313524578615601"}]}},{"externalId":{"kpHD":"4a54743947182ab0ba25916959e6581a","imdb":"tt1872181","tmdb":102382},"rating":{"kp":6.711,"imdb":6.6,"filmCritics":5.8,"russianFilmCritics":66.6667,"await":88.19},"votes":{"kp":243845,"imdb":505672,"filmCritics":315,"russianFilmCritics":21,"await":46478},"movieLength":142,"id":602409,"type":"movie","name":"Новый Человек-паук: Высокое напряжение","description":"Питер Паркер под маской Человека-паука по-прежнему спасает мир от злодеев и преступников, а свободное время проводит со своей возлюбленной Гвен, но школьная пора близится к концу, и впереди героев ждет взрослая жизнь. Питер помнит о том, что дал отцу Гвен слово навсегда уйти из жизни девушки, тем самым больше не подвергая ее опасности. Однако сдержать это обещание не так просто. Судьба готовит Питеру сюрпризы: на его пути появится новый противник — Электро, а также ему будет суждено вновь встретиться с давним приятелем Гарри Озборном и узнать много нового о прошлом своей семьи.","year":2014,"poster":{"url":"https://st.kp.yandex.net/images/film_big/602409.jpg","previewUrl":"https://st.kp.yandex.net/images/film_iphone/iphone360_602409.jpg"},"alternativeName":"The Amazing Spider-Man 2","enName":null,"names":[{"name":"Новый Человек-паук: Высокое напряжение"},{"name":"The Amazing Spider-Man 2"}],"shortDescription":"Питер Паркер ищет отца, находит старого друга и сражается с новым злодеем. Финал дилогии с Эндрю Гарфилдом","logo":{"url":"https://avatars.mds.yandex.net/get-ott/2439731/2a00000171bfea75009dafbe6ff69342ebb6/orig"},"watchability":{"items":[{"name":"Okko","logo":{"url":"https://avatars.mds.yandex.net/get-ott/239697/7713e586-17d1-42d1-ac62-53e9ef1e70c3/orig"},"url":"https://okko.tv/movie/the-amazing-spider-man-2?utm_medium=referral&utm_source=yandex_search&utm_campaign=new_search_feed"},{"name":"Иви","logo":{"url":"https://avatars.mds.yandex.net/get-ott/2419418/0dfd1724-848f-4725-9160-abc571f41c11/orig"},"url":"https://www.ivi.ru/watch/109913?utm_source=yandex&utm_medium=wizard"},{"name":"Триколор Кино и ТВ","logo":{"url":"https://avatars.mds.yandex.net/get-ott/239697/947e777c-2f73-4cbc-b09d-6bfa3966ba13/orig"},"url":"https://kino.tricolor.tv/watch/novyy-chelovek-pauk-vysokoe-napryazhenie-2014/?utm_source=yandex&utm_medium=feed"},{"name":"Wink","logo":{"url":"https://avatars.mds.yandex.net/get-ott/1672343/54096cbe-cc3b-41c9-8e44-990ebbca8d61/orig"},"url":"https://wink.ru/media_items/55019350?utm_source=yandex&utm_medium=koldunschick&utm_content=name"},{"name":"viju","logo":{"url":"https://avatars.mds.yandex.net/get-ott/224348/8b10c84b-e1bb-4493-9bc4-6ee56554403a/orig"},"url":"https://viju.ru/filmy/novyy-chelovek-pauk-vysokoe-napryazhenie?utm_campaign=yandex_content_integration&utm_medium=affiliate&utm_source=yandex"},{"name":"НТВ-ПЛЮС Онлайн ТВ","logo":{"url":"https://avatars.mds.yandex.net/get-ott/223007/c6b9b3d8-3258-4394-9cae-c86fdb56a0c6/orig"},"url":"https://ntvplus.tv/watch/16908-novyj-chelovek-pauk-vysokoe-napryazhenie?utm_source=kinopoisk"},{"name":"24ТВ","logo":{"url":"https://avatars.mds.yandex.net/get-ott/2439731/85e83b8d-1159-4781-bad5-ce0a809b3843/orig"},"url":"https://24h.tv/contents/2014-the-amazing-spider-man-2-546314735641953227"}]}},{"id":297241,"alternativeName":"Jack Black: Spider-Man","description":null,"enName":null,"externalId":{"kpHD":null,"imdb":"tt0331527"},"movieLength":5,"name":"Джек Блэк: Человек-паук","names":[{"name":"Джек Блэк: Человек-паук"},{"name":"Jack Black: Spider-Man"}],"poster":{"url":"https://st.kp.yandex.net/images/film_big/297241.jpg","previewUrl":"https://st.kp.yandex.net/images/film_iphone/iphone360_297241.jpg"},"rating":{"kp":6.847,"imdb":7.4,"filmCritics":0,"russianFilmCritics":0,"await":0},"shortDescription":null,"type":"movie","votes":{"kp":1310,"imdb":1669,"filmCritics":0,"russianFilmCritics":0,"await":0},"year":2002,"logo":{"url":null},"watchability":{"items":null}},{"externalId":{"kpHD":null,"imdb":"tt2084949","tmdb":148918},"rating":{"kp":7.703,"imdb":7.8,"filmCritics":0,"russianFilmCritics":0,"await":0},"votes":{"kp":479,"imdb":385,"filmCritics":0,"russianFilmCritics":0,"await":0},"movieLength":11,"id":642446,"type":"movie","name":"Супермен, Человек-паук или Бэтмен","description":"Вдохновленный любимыми героями комиксов, мальчик решает спасти свою маму.","year":2011,"poster":{"url":"https://st.kp.yandex.net/images/film_big/642446.jpg","previewUrl":"https://st.kp.yandex.net/images/film_iphone/iphone360_642446.jpg"},"alternativeName":"Superman, Spiderman or Batman","enName":null,"names":[{"name":"Супермен, Человек-паук или Бэтмен"},{"name":"Superman, Spiderman or Batman"}],"shortDescription":null,"logo":{"url":null},"watchability":{"items":null}}],"total":21,"limit":10,"page":1,"pages":3}